<?xml version="1.0" encoding="UTF-8" standalone="no"?>
<svg width="24px" height="17px" viewBox="0 0 24 17" version="1.1" xmlns="http://www.w3.org/2000/svg" xmlns:xlink="http://www.w3.org/1999/xlink">
    <!-- Generator: Sketch 3.8.3 (29802) - http://www.bohemiancoding.com/sketch -->
    <title>us</title>
    <desc>Created with Sketch.</desc>
    <defs>
        <polygon id="path-1" points="0 0 23.9884041 0 23.9884041 18 0 18"></polygon>
    </defs>
    <g id="Homepage" stroke="none" stroke-width="1" fill="none" fill-rule="evenodd">
        <g id="1-homepage-desktop@2x" transform="translate(-1142.000000, -28.000000)">
            <g id="Top-Bar">
                <g id="us" transform="translate(1142.000000, 28.000000)">
                    <g id="The-United-States-of-America-flag,-produced-by-Daniel-McRae">
                        <g id="Clipped">
                            <mask id="mask-2" fill="white">
                                <use xlink:href="#path-1"></use>
                            </mask>
                            <g id="Shape"></g>
                            <g id="Group" mask="url(#mask-2)">
                                <g id="Shape">
                                    <g fill="#BD3D44">
                                        <path d="M0,0 L32.0471816,0 L32.0471816,1.2980896 L0,1.2980896 L0,0 Z M0,2.5961792 L32.0471816,2.5961792 L32.0471816,3.8942688 L0,3.8942688 L0,2.5961792 Z M0,5.1923584 L32.0471816,5.1923584 L32.0471816,6.490448 L0,6.490448 L0,5.1923584 Z M0,7.7885376 L32.0471816,7.7885376 L32.0471816,9.0866272 L0,9.0866272 L0,7.7885376 Z M0,10.3847168 L32.0471816,10.3847168 L32.0471816,11.6828064 L0,11.6828064 L0,10.3847168 Z M0,12.980896 L32.0471816,12.980896 L32.0471816,14.2789856 L0,14.2789856 L0,12.980896 Z M0,15.5770752 L32.0471816,15.5770752 L32.0471816,16.8751648 L0,16.8751648 L0,15.5770752 Z"></path>
                                    </g>
                                    <g transform="translate(0.000000, 1.285400)" fill="#FFFFFF">
                                        <path d="M0,0.012689209 L32.0471816,0.012689209 L32.0471816,1.31077881 L0,1.31077881 L0,0.012689209 Z M0,2.60886841 L32.0471816,2.60886841 L32.0471816,3.90695801 L0,3.90695801 L0,2.60886841 Z M0,5.20504761 L32.0471816,5.20504761 L32.0471816,6.50313721 L0,6.50313721 L0,5.20504761 Z M0,7.80122681 L32.0471816,7.80122681 L32.0471816,9.09931641 L0,9.09931641 L0,7.80122681 Z M0,10.397406 L32.0471816,10.397406 L32.0471816,11.6954956 L0,11.6954956 L0,10.397406 Z M0,12.9935852 L32.0471816,12.9935852 L32.0471816,14.2916748 L0,14.2916748 L0,12.9935852 Z"></path>
                                    </g>
                                </g>
                                <polygon id="Shape" fill="#192F5D" points="0 0 12.8187408 0 12.8187408 9.0864624 0 9.0864624"></polygon>
                                <g transform="translate(0.560029, 0.362549)" id="Shape" fill="#FFFFFF">
                                    <path d="M0.508210102,0.0263671875 L0.624827965,0.385488281 L1.0022877,0.385488281 L0.696907028,0.607467041 L0.813557833,0.966588135 L0.50817716,0.744642334 L0.202862372,0.966588135 L0.319480234,0.607467041 L0.0141325037,0.385488281 L0.391559297,0.385488281 L0.508210102,0.0263671875 Z M2.64465593,0.0263671875 L2.76130673,0.385488281 L3.13876647,0.385488281 L2.8333858,0.607467041 L2.9500366,0.966588135 L2.64465593,0.744642334 L2.33934114,0.966588135 L2.455959,0.607467041 L2.15061127,0.385488281 L2.52803807,0.385488281 L2.64465593,0.0263671875 Z M4.78120059,0.0263671875 L4.89781845,0.385488281 L5.27527818,0.385488281 L4.96989751,0.607467041 L5.08654832,0.966588135 L4.78120059,0.744642334 L4.47585286,0.966588135 L4.59247072,0.607467041 L4.28712299,0.385488281 L4.66458272,0.385488281 L4.78120059,0.0263671875 Z M6.91761347,0.0263671875 L7.03423133,0.385488281 L7.41165813,0.385488281 L7.1063104,0.607467041 L7.22292826,0.966588135 L6.91761347,0.744642334 L6.6122328,0.966588135 L6.7288836,0.607467041 L6.42350293,0.385488281 L6.80096266,0.385488281 L6.91761347,0.0263671875 Z M9.05412518,0.0263671875 L9.17074305,0.385488281 L9.54820278,0.385488281 L9.24282211,0.607467041 L9.35947291,0.966588135 L9.05409224,0.744642334 L8.74877745,0.966588135 L8.86539531,0.607467041 L8.56004758,0.385488281 L8.93747438,0.385488281 L9.05412518,0.0263671875 Z M11.1906369,0.0263671875 L11.3072548,0.385488281 L11.6847145,0.385488281 L11.3793338,0.607467041 L11.4959846,0.966588135 L11.1906369,0.744642334 L10.8852562,0.966588135 L11.00194,0.607467041 L10.6965593,0.385488281 L11.074019,0.385488281 L11.1906369,0.0263671875 Z"></path>
                                    <path d="M1.57648243,0.935046387 L1.69310029,1.29416748 L2.07056003,1.29416748 L1.76517936,1.51611328 L1.8818631,1.87526733 L1.57648243,1.65332153 L1.2711347,1.87526733 L1.38775256,1.51611328 L1.08240483,1.29416748 L1.45986457,1.29416748 L1.57648243,0.935046387 Z M3.71289531,0.935046387 L3.82951318,1.29416748 L4.20693997,1.29416748 L3.90159224,1.51611328 L4.0182101,1.87526733 L3.71289531,1.65332153 L3.40751464,1.87526733 L3.52416545,1.51611328 L3.21878477,1.29416748 L3.59624451,1.29416748 L3.71289531,0.935046387 Z M5.84940703,0.935046387 L5.96602489,1.29416748 L6.34348463,1.29416748 L6.03810395,1.51611328 L6.15475476,1.87526733 L5.84937408,1.65332153 L5.5440593,1.87526733 L5.66067716,1.51611328 L5.35532943,1.29416748 L5.73275622,1.29416748 L5.84940703,0.935046387 Z M7.98591874,0.935046387 L8.1025366,1.29416748 L8.47999634,1.29416748 L8.17461567,1.51611328 L8.29126647,1.87526733 L7.98591874,1.65332153 L7.68053807,1.87526733 L7.79725476,1.51611328 L7.49187408,1.29416748 L7.86933382,1.29416748 L7.98591874,0.935046387 Z M10.1223316,0.935046387 L10.2389495,1.29416748 L10.6163763,1.29416748 L10.3110286,1.51611328 L10.4276464,1.87526733 L10.1223316,1.65332153 L9.81695095,1.87526733 L9.93360176,1.51611328 L9.62822108,1.29416748 L10.0056808,1.29416748 L10.1223316,0.935046387 Z"></path>
                                    <g transform="translate(0.000000, 1.812744)">
                                        <path d="M0.508210102,0.0309484863 L0.624827965,0.39006958 L1.0022877,0.39006958 L0.696907028,0.61204834 L0.813557833,0.971169434 L0.50817716,0.749223633 L0.202862372,0.971169434 L0.319480234,0.61204834 L0.0141325037,0.39006958 L0.391559297,0.39006958 L0.508210102,0.0309484863 Z M2.64465593,0.0309484863 L2.76130673,0.39006958 L3.13876647,0.39006958 L2.8333858,0.61204834 L2.9500366,0.971169434 L2.64465593,0.749223633 L2.33934114,0.971169434 L2.455959,0.61204834 L2.15061127,0.39006958 L2.52803807,0.39006958 L2.64465593,0.0309484863 Z M4.78120059,0.0309484863 L4.89781845,0.39006958 L5.27527818,0.39006958 L4.96989751,0.61204834 L5.08654832,0.971169434 L4.78120059,0.749223633 L4.47585286,0.971169434 L4.59247072,0.61204834 L4.28712299,0.39006958 L4.66458272,0.39006958 L4.78120059,0.0309484863 Z M6.91761347,0.0309484863 L7.03423133,0.39006958 L7.41165813,0.39006958 L7.1063104,0.61204834 L7.22292826,0.971169434 L6.91761347,0.749223633 L6.6122328,0.971169434 L6.7288836,0.61204834 L6.42350293,0.39006958 L6.80096266,0.39006958 L6.91761347,0.0309484863 Z M9.05412518,0.0309484863 L9.17074305,0.39006958 L9.54820278,0.39006958 L9.24282211,0.61204834 L9.35947291,0.971169434 L9.05409224,0.749223633 L8.74877745,0.971169434 L8.86539531,0.61204834 L8.56004758,0.39006958 L8.93747438,0.39006958 L9.05412518,0.0309484863 Z M11.1906369,0.0309484863 L11.3072548,0.39006958 L11.6847145,0.39006958 L11.3793338,0.61204834 L11.4959846,0.971169434 L11.1906369,0.749223633 L10.8852562,0.971169434 L11.00194,0.61204834 L10.6965593,0.39006958 L11.074019,0.39006958 L11.1906369,0.0309484863 Z"></path>
                                        <path d="M1.57648243,0.939594727 L1.69310029,1.29874878 L2.07056003,1.29874878 L1.76517936,1.52069458 L1.8818631,1.87984863 L1.57648243,1.65790283 L1.2711347,1.87984863 L1.38775256,1.52069458 L1.08240483,1.29874878 L1.45986457,1.29874878 L1.57648243,0.939594727 Z M3.71289531,0.939594727 L3.82951318,1.29874878 L4.20693997,1.29874878 L3.90159224,1.52069458 L4.0182101,1.87984863 L3.71289531,1.65790283 L3.40751464,1.87984863 L3.52416545,1.52069458 L3.21878477,1.29874878 L3.59624451,1.29874878 L3.71289531,0.939594727 Z M5.84940703,0.939594727 L5.96602489,1.29874878 L6.34348463,1.29874878 L6.03810395,1.52069458 L6.15475476,1.87984863 L5.84937408,1.65790283 L5.5440593,1.87984863 L5.66067716,1.52069458 L5.35532943,1.29874878 L5.73275622,1.29874878 L5.84940703,0.939594727 Z M7.98591874,0.939594727 L8.1025366,1.29874878 L8.47999634,1.29874878 L8.17461567,1.52069458 L8.29126647,1.87984863 L7.98591874,1.65790283 L7.68053807,1.87984863 L7.79722182,1.52069458 L7.49184114,1.29874878 L7.86930088,1.29874878 L7.98591874,0.939594727 Z M10.1223316,0.939594727 L10.2389495,1.29874878 L10.6163763,1.29874878 L10.3110286,1.52069458 L10.4276464,1.87984863 L10.1223316,1.65790283 L9.81695095,1.87984863 L9.93360176,1.52069458 L9.62822108,1.29874878 L10.0056808,1.29874878 L10.1223316,0.939594727 Z"></path>
                                    </g>
                                    <g transform="translate(0.000000, 3.658447)">
                                        <path d="M0.508210102,0.00257080078 L0.624827965,0.361691895 L1.0022877,0.361691895 L0.696907028,0.583670654 L0.813557833,0.942791748 L0.50817716,0.720845947 L0.202862372,0.942791748 L0.319480234,0.583670654 L0.0141325037,0.361691895 L0.391559297,0.361691895 L0.508210102,0.00257080078 Z M2.64465593,0.00257080078 L2.76130673,0.361691895 L3.13876647,0.361691895 L2.8333858,0.583670654 L2.9500366,0.942791748 L2.64465593,0.720845947 L2.33934114,0.942791748 L2.455959,0.583670654 L2.15061127,0.361691895 L2.52803807,0.361691895 L2.64465593,0.00257080078 Z M4.78120059,0.00257080078 L4.89781845,0.361691895 L5.27527818,0.361691895 L4.96989751,0.583670654 L5.08654832,0.942791748 L4.78120059,0.720845947 L4.47585286,0.942791748 L4.59247072,0.583670654 L4.28712299,0.361691895 L4.66458272,0.361691895 L4.78120059,0.00257080078 Z M6.91761347,0.00257080078 L7.03423133,0.361691895 L7.41165813,0.361691895 L7.1063104,0.583670654 L7.22292826,0.942791748 L6.91761347,0.720845947 L6.6122328,0.942791748 L6.7288836,0.583670654 L6.42350293,0.361691895 L6.80096266,0.361691895 L6.91761347,0.00257080078 Z M9.05412518,0.00257080078 L9.17074305,0.361691895 L9.54820278,0.361691895 L9.24282211,0.583670654 L9.35947291,0.942791748 L9.05409224,0.720845947 L8.74877745,0.942791748 L8.86539531,0.583670654 L8.56004758,0.361691895 L8.93747438,0.361691895 L9.05412518,0.00257080078 Z M11.1906369,0.00257080078 L11.3072548,0.361691895 L11.6847145,0.361691895 L11.3793338,0.583670654 L11.4959846,0.942791748 L11.1906369,0.720845947 L10.8852562,0.942791748 L11.00194,0.583670654 L10.6965593,0.361691895 L11.074019,0.361691895 L11.1906369,0.00257080078 Z"></path>
                                        <path d="M1.57648243,0.911217041 L1.69310029,1.27037109 L2.07056003,1.27037109 L1.76517936,1.49231689 L1.8818631,1.85147095 L1.57648243,1.62952515 L1.2711347,1.85147095 L1.38775256,1.49231689 L1.08240483,1.27037109 L1.45986457,1.27037109 L1.57648243,0.911217041 Z M3.71289531,0.911217041 L3.82951318,1.27037109 L4.20693997,1.27037109 L3.90159224,1.49231689 L4.0182101,1.85147095 L3.71289531,1.62952515 L3.40751464,1.85147095 L3.52416545,1.49231689 L3.21878477,1.27037109 L3.59624451,1.27037109 L3.71289531,0.911217041 Z M5.84940703,0.911217041 L5.96602489,1.27037109 L6.34348463,1.27037109 L6.03810395,1.49231689 L6.15475476,1.85147095 L5.84937408,1.62952515 L5.5440593,1.85147095 L5.66067716,1.49231689 L5.35532943,1.27037109 L5.73275622,1.27037109 L5.84940703,0.911217041 Z M7.98591874,0.911217041 L8.1025366,1.27037109 L8.47999634,1.27037109 L8.17461567,1.49231689 L8.29126647,1.85147095 L7.98591874,1.62952515 L7.68053807,1.85147095 L7.79722182,1.49231689 L7.49184114,1.27037109 L7.86930088,1.27037109 L7.98591874,0.911217041 Z M10.1223316,0.911217041 L10.2389495,1.27037109 L10.6163763,1.27037109 L10.3110286,1.49231689 L10.4276464,1.85147095 L10.1223316,1.62952515 L9.81695095,1.85147095 L9.93360176,1.49231689 L9.62822108,1.27037109 L10.0056808,1.27037109 L10.1223316,0.911217041 Z"></path>
                                    </g>
                                    <g transform="translate(0.000000, 5.471191)">
                                        <path d="M0.508210102,0.00715209961 L0.624827965,0.366273193 L1.0022877,0.366273193 L0.696907028,0.588251953 L0.813557833,0.947373047 L0.50817716,0.725427246 L0.202862372,0.947373047 L0.319480234,0.588251953 L0.0141325037,0.366273193 L0.391559297,0.366273193 L0.508210102,0.00715209961 Z M2.64465593,0.00715209961 L2.76130673,0.366273193 L3.13876647,0.366273193 L2.8333858,0.588251953 L2.9500366,0.947373047 L2.64465593,0.725427246 L2.33934114,0.947373047 L2.455959,0.588251953 L2.15061127,0.366273193 L2.52803807,0.366273193 L2.64465593,0.00715209961 Z M4.78120059,0.00715209961 L4.89781845,0.366273193 L5.27527818,0.366273193 L4.96989751,0.588251953 L5.08654832,0.947373047 L4.78120059,0.725427246 L4.47585286,0.947373047 L4.59247072,0.588251953 L4.28712299,0.366273193 L4.66458272,0.366273193 L4.78120059,0.00715209961 Z M6.91761347,0.00715209961 L7.03423133,0.366273193 L7.41165813,0.366273193 L7.1063104,0.588251953 L7.22292826,0.947373047 L6.91761347,0.725427246 L6.6122328,0.947373047 L6.7288836,0.588251953 L6.42350293,0.366273193 L6.80096266,0.366273193 L6.91761347,0.00715209961 Z M9.05412518,0.00715209961 L9.17074305,0.366273193 L9.54820278,0.366273193 L9.24282211,0.588251953 L9.35947291,0.947373047 L9.05409224,0.725427246 L8.74877745,0.947373047 L8.86539531,0.588251953 L8.56004758,0.366273193 L8.93747438,0.366273193 L9.05412518,0.00715209961 Z M11.1906369,0.00715209961 L11.3072548,0.366273193 L11.6847145,0.366273193 L11.3793338,0.588251953 L11.4959846,0.947373047 L11.1906369,0.725427246 L10.8852562,0.947373047 L11.00194,0.588251953 L10.6965593,0.366273193 L11.074019,0.366273193 L11.1906369,0.00715209961 Z"></path>
                                        <path d="M1.57648243,0.91579834 L1.69310029,1.27495239 L2.07056003,1.27495239 L1.76517936,1.49689819 L1.8818631,1.85605225 L1.57648243,1.63410645 L1.2711347,1.85605225 L1.38775256,1.49689819 L1.08240483,1.27495239 L1.45986457,1.27495239 L1.57648243,0.91579834 Z M3.71289531,0.91579834 L3.82951318,1.27495239 L4.20693997,1.27495239 L3.90159224,1.49689819 L4.0182101,1.85605225 L3.71289531,1.63410645 L3.40751464,1.85605225 L3.52416545,1.49689819 L3.21878477,1.27495239 L3.59624451,1.27495239 L3.71289531,0.91579834 Z M5.84940703,0.91579834 L5.96602489,1.27495239 L6.34348463,1.27495239 L6.03810395,1.49689819 L6.15475476,1.85605225 L5.84937408,1.63410645 L5.5440593,1.85605225 L5.66067716,1.49689819 L5.35532943,1.27495239 L5.73275622,1.27495239 L5.84940703,0.91579834 Z M7.98591874,0.91579834 L8.1025366,1.27495239 L8.47999634,1.27495239 L8.17461567,1.49689819 L8.29126647,1.85605225 L7.98591874,1.63410645 L7.68053807,1.85605225 L7.79722182,1.49689819 L7.49184114,1.27495239 L7.86930088,1.27495239 L7.98591874,0.91579834 Z M10.1223316,0.91579834 L10.2389495,1.27495239 L10.6163763,1.27495239 L10.3110286,1.49689819 L10.4276464,1.85605225 L10.1223316,1.63410645 L9.81695095,1.85605225 L9.93360176,1.49689819 L9.62822108,1.27495239 L10.0056808,1.27495239 L10.1223316,0.91579834 Z"></path>
                                    </g>
                                    <path d="M0.508210102,7.29566895 L0.624827965,7.65479004 L1.0022877,7.65479004 L0.696907028,7.8767688 L0.813557833,8.23588989 L0.50817716,8.01394409 L0.202862372,8.23588989 L0.319480234,7.8767688 L0.0141325037,7.65479004 L0.391559297,7.65479004 L0.508210102,7.29566895 Z M2.64465593,7.29566895 L2.76130673,7.65479004 L3.13876647,7.65479004 L2.8333858,7.8767688 L2.9500366,8.23588989 L2.64465593,8.01394409 L2.33934114,8.23588989 L2.455959,7.8767688 L2.15061127,7.65479004 L2.52803807,7.65479004 L2.64465593,7.29566895 Z M4.78120059,7.29566895 L4.89781845,7.65479004 L5.27527818,7.65479004 L4.96989751,7.8767688 L5.08654832,8.23588989 L4.78120059,8.01394409 L4.47585286,8.23588989 L4.59247072,7.8767688 L4.28712299,7.65479004 L4.66458272,7.65479004 L4.78120059,7.29566895 Z M6.91761347,7.29566895 L7.03423133,7.65479004 L7.41165813,7.65479004 L7.1063104,7.8767688 L7.22292826,8.23588989 L6.91761347,8.01394409 L6.6122328,8.23588989 L6.7288836,7.8767688 L6.42350293,7.65479004 L6.80096266,7.65479004 L6.91761347,7.29566895 Z M9.05412518,7.29566895 L9.17074305,7.65479004 L9.54820278,7.65479004 L9.24282211,7.8767688 L9.35947291,8.23588989 L9.05409224,8.01394409 L8.74877745,8.23588989 L8.86539531,7.8767688 L8.56004758,7.65479004 L8.93747438,7.65479004 L9.05412518,7.29566895 Z M11.1906369,7.29566895 L11.3072548,7.65479004 L11.6847145,7.65479004 L11.3793338,7.8767688 L11.4959846,8.23588989 L11.1906369,8.01394409 L10.8852562,8.23588989 L11.00194,7.8767688 L10.6965593,7.65479004 L11.074019,7.65479004 L11.1906369,7.29566895 Z"></path>
                                </g>
                            </g>
                        </g>
                    </g>
                </g>
            </g>
        </g>
    </g>
</svg>