<?xml version="1.0" encoding="UTF-8" standalone="no"?>
<svg width="289px" height="26px" viewBox="0 0 289 26" version="1.1" xmlns="http://www.w3.org/2000/svg" xmlns:xlink="http://www.w3.org/1999/xlink">
    <!-- Generator: Sketch 41 (35326) - http://www.bohemiancoding.com/sketch -->
    <title>Shoe sensation logo</title>
    <desc>Created with Sketch.</desc>
    <defs>
        <polygon id="path-1" points="106.921785 26 0.024363113 26 0.024363113 0.04915625 106.921785 0.04915625 213.819207 0.04915625 213.819207 26 106.921785 26"></polygon>
    </defs>
    <g id="Desktop" stroke="none" stroke-width="1" fill="none" fill-rule="evenodd">
        <g id="1-home@2x" transform="translate(-25.000000, -23.000000)">
            <g id="Top-Bar">
                <g id="Shoe-sensation-logo" transform="translate(25.000000, 23.000000)">
                    <path d="M252.668627,22.7130312 C247.322548,22.7130312 242.985101,18.3746875 242.985101,13.0247812 C242.985101,7.674875 247.322548,3.33571875 252.668627,3.33571875 C258.01633,3.33571875 262.352558,7.674875 262.352558,13.0247812 C262.352558,18.3746875 258.01633,22.7130312 252.668627,22.7130312 L252.668627,22.7130312 Z M252.668627,0.04915625 C245.506683,0.04915625 239.698923,5.85975 239.698923,13.0247812 C239.698923,20.190625 245.506683,26 252.668627,26 C259.83057,26 265.638736,20.190625 265.638736,13.0247812 C265.638736,5.85975 259.83057,0.04915625 252.668627,0.04915625 L252.668627,0.04915625 Z" id="Fill-1" fill="#FFFFFF"></path>
                    <g id="Group-7">
                        <mask id="mask-2" fill="white">
                            <use xlink:href="#path-1"></use>
                        </mask>
                        <g id="Clip-3"></g>
                        <path d="M200.669216,22.8162187 C195.265072,22.8162187 190.882148,18.4315625 190.882148,13.0247812 C190.882148,7.61840625 195.265072,3.2329375 200.669216,3.2329375 C206.073361,3.2329375 210.456285,7.61840625 210.456285,13.0247812 C210.456285,18.4315625 206.073361,22.8162187 200.669216,22.8162187 L200.669216,22.8162187 Z M210.636166,0.63821875 L210.636166,4.7230625 C208.257108,1.86671875 204.675324,0.04915625 200.669216,0.04915625 C193.507679,0.04915625 187.698701,5.85975 187.698701,13.0247812 C187.698701,20.190625 193.507679,26 200.669216,26 C204.675324,26 208.257108,24.18325 210.636166,21.3260937 L210.636166,25.337 L213.819207,25.337 L213.819207,0.63821875 L210.636166,0.63821875 L210.636166,0.63821875 Z" id="Fill-2" fill="#FFFFFF" mask="url(#mask-2)"></path>
                        <path d="M11.903817,1.3446875 C14.3746427,3.08953125 14.5687355,6.56946875 14.5687355,6.56946875 L11.3852887,6.63325 C11.1091735,5.083 10.6239415,3.71190625 8.72849128,3.37634375 C6.9865287,3.06921875 5.5535716,4.07590625 5.02164364,5.68709375 C4.56889579,7.059 4.91769436,8.25621875 5.77771224,9.03865625 C6.9317117,10.0888125 9.47522069,10.6145 11.1643965,11.4582813 C13.1349663,12.4414063 14.7283139,13.9404688 15.2200427,16.1143125 C15.5241756,17.4618438 15.5903621,18.772 15.323992,20.1455313 C15.0133623,21.7481875 14.1362903,23.411375 12.6818124,24.388 C10.690534,25.7249688 7.62524831,26.0361563 5.22791799,25.1854688 C1.52147641,23.7197188 0.484419897,21.6226563 0,17.574375 C0,17.574375 2.39692427,17.5459375 3.25369374,17.5459375 C3.33409201,18.3864688 3.55498424,19.2225313 3.8599292,19.998875 C4.18274045,20.8207188 5.0252981,21.8664063 6.11554741,22.3344063 C7.49084514,22.9230625 9.30427285,22.6845938 10.432285,22.13575 C11.950513,21.2529688 12.2855058,19.4634375 12.1770899,17.9310625 C12.0788254,16.5416875 11.4250818,15.38225 9.98928238,14.6213438 C7.74625177,13.4330625 5.27664422,13.1044063 3.45631363,11.6597813 C0.0828345841,8.94034375 1.3257594,3.3336875 4.39104506,1.39790625 C6.5544895,0.0024375 9.77610514,-0.15721875 11.903817,1.3446875" id="Fill-4" fill="#FFFFFF" mask="url(#mask-2)"></path>
                        <polyline id="Fill-5" fill="#FFFFFF" mask="url(#mask-2)" points="17.3538454 0.63821875 20.5385103 0.63821875 20.5385103 11.6155 33.2796063 11.6155 33.2796063 0.63821875 36.4650833 0.63821875 36.4650833 25.337 33.2796063 25.337 33.2796063 14.8894687 20.5385103 14.8894687 20.5385103 25.337 17.3538454 25.337 17.3538454 0.63821875"></polyline>
                        <path d="M147.929168,0.30834375 L151.113426,0.30834375 L151.113426,4.6531875 C151.577138,3.65625 152.468422,2.5618125 153.149777,1.9654375 C155.44194,-0.03696875 159.45495,-0.2413125 162.38299,0.845 C164.008822,1.44828125 165.630999,2.7129375 166.658717,4.23109375 C167.419658,5.35478125 167.852103,6.6885 168.109946,8.00759375 C168.419358,9.5883125 168.455496,11.337625 168.455496,14.0355312 L168.455496,25.337 L165.270831,25.337 L165.270831,16.1679375 C165.270831,11.5200312 165.510808,8.16521875 163.508972,5.46121875 C161.270814,2.70846875 156.952453,3.18703125 155.081771,4.44884375 C153.157086,5.80165625 151.113426,7.33525 151.113426,15.897375 L151.113426,25.337 L147.929168,25.337 L147.929168,0.30834375" id="Fill-6" fill="#FFFFFF" mask="url(#mask-2)"></path>
                    </g>
                    <path d="M216.214101,0.63821875 L231.875116,0.63821875 L231.875116,3.91421875 L225.680794,3.91421875 L225.680794,25.337 L222.496129,25.337 L222.496129,3.91421875 L216.214101,3.91421875 L216.214101,0.63821875" id="Fill-8" fill="#FFFFFF"></path>
                    <path d="M234.072262,0.63821875 L237.257333,0.63821875 L237.257333,5.1545 L234.072262,5.1545 L234.072262,0.63821875" id="Fill-9" fill="#FFFFFF"></path>
                    <g id="Group-14" transform="translate(104.355334, 0.000000)" fill="#FFFFFF">
                        <path d="M129.716929,7.63303125 L132.901999,7.63303125 L132.901999,25.337 L129.716929,25.337 L129.716929,7.63303125" id="Fill-10"></path>
                        <path d="M11.9643187,1.3446875 C14.4359565,3.08953125 14.6300493,6.56946875 14.6300493,6.56946875 L11.4461965,6.63325 C11.1704873,5.083 10.6852553,3.71190625 8.78980511,3.37634375 C7.04784253,3.06921875 5.61447939,4.07590625 5.08214537,5.68709375 C4.62980357,7.059 4.97982029,8.25621875 5.83943213,9.03865625 C6.99383763,10.0888125 9.53572242,10.6145 11.2248983,11.4582813 C13.1962801,12.4414063 14.7896277,13.9404688 15.2817626,16.1143125 C15.5863015,17.4618438 15.6508638,18.772 15.3844937,20.1455313 C15.0742701,21.7481875 14.197198,23.411375 12.7435323,24.388 C10.7514418,25.7249688 7.68615609,26.0361563 5.28882578,25.1854688 C1.58279024,23.7197188 0.544921627,21.6226563 0.0613138343,17.574375 C0.0613138343,17.574375 2.45783205,17.5459375 3.31500757,17.5459375 C3.39621795,18.3864688 3.61670412,19.2225313 3.92083698,19.998875 C4.24364823,20.8207188 5.08620589,21.8664063 6.1772673,22.3344063 C7.55297108,22.9230625 9.36518063,22.6845938 10.4935988,22.13575 C12.0118268,21.2529688 12.3468196,19.4634375 12.2375917,17.9310625 C12.1393271,16.5416875 11.4855836,15.38225 10.0501902,14.6213438 C7.80756561,13.4330625 5.33714595,13.1044063 3.51722141,11.6597813 C0.144148418,8.94034375 1.38707323,3.3336875 4.45276495,1.39790625 C6.61580333,0.0024375 9.83701292,-0.15721875 11.9643187,1.3446875" id="Fill-12"></path>
                        <path d="M78.0967708,1.3446875 C80.5680025,3.08953125 80.7620953,6.56946875 80.7620953,6.56946875 L77.5786486,6.63325 C77.3025333,5.083 76.8177073,3.71190625 74.9218511,3.37634375 C73.1802946,3.06921875 71.7469314,4.07590625 71.2145974,5.68709375 C70.7626617,7.059 71.1114602,8.25621875 71.9710721,9.03865625 C73.1266957,10.0888125 75.6685805,10.6145 77.3569442,11.4582813 C79.3283261,12.4414063 80.9216737,13.9404688 81.4138086,16.1143125 C81.7179415,17.4618438 81.7829098,18.772 81.5165397,20.1455313 C81.2063161,21.7481875 80.329244,23.411375 78.8747662,24.388 C76.8834877,25.7249688 73.817796,26.0361563 71.4208718,25.1854688 C67.7152423,23.7197188 66.6769676,21.6226563 66.1941719,17.574375 C66.1941719,17.574375 68.589472,17.5459375 69.4470536,17.5459375 C69.5278579,18.3864688 69.7487501,19.2225313 70.053289,19.998875 C70.3765063,20.8207188 71.2186579,21.8664063 72.3085012,22.3344063 C73.684611,22.9230625 75.4976327,22.6845938 76.6256448,22.13575 C78.1430607,21.2529688 78.4788656,19.4634375 78.3700437,17.9310625 C78.2717791,16.5416875 77.6176296,15.38225 76.1822361,14.6213438 C73.9396116,13.4330625 71.4704101,13.1044063 69.6492674,11.6597813 C66.2766005,8.94034375 67.5195253,3.3336875 70.5844049,1.39790625 C72.7478493,0.0024375 75.9702771,-0.15721875 78.0967708,1.3446875" id="Fill-13"></path>
                    </g>
                    <path d="M51.5551894,22.828 C46.144142,22.828 41.7559393,18.438875 41.7559393,13.0247812 C41.7559393,7.61109375 46.144142,3.22196875 51.5551894,3.22196875 C56.9658308,3.22196875 61.3540335,7.61109375 61.3540335,13.0247812 C61.3540335,18.438875 56.9658308,22.828 51.5551894,22.828 L51.5551894,22.828 Z M51.5551894,0.04915625 C44.3932463,0.04915625 38.5842681,5.85975 38.5842681,13.0247812 C38.5842681,20.190625 44.3932463,26 51.5551894,26 C58.7167265,26 64.5248926,20.190625 64.5248926,13.0247812 C64.5248926,5.85975 58.7167265,0.04915625 51.5551894,0.04915625 L51.5551894,0.04915625 Z" id="Fill-15" fill="#FFFFFF"></path>
                    <g id="Group-19" transform="translate(121.409513, 0.000000)" fill="#FFFFFF">
                        <path d="M3.3645459,13.0247812 C3.3645459,7.674875 7.70199212,3.33571875 13.0488833,3.33571875 C15.7272015,3.33571875 18.1509252,4.424875 19.9034452,6.183125 L5.10163586,18.56075 C4.00691998,16.9914062 3.3645459,15.08325 3.3645459,13.0247812 L3.3645459,13.0247812 Z M21.0168394,18.5343437 C21.0168394,18.5343437 17.6380817,22.7130312 13.0488833,22.7130312 C10.932947,22.7130312 8.97618293,22.0337812 7.38242929,20.88125 L24.3643311,6.68078125 C23.6610493,5.59040625 23.0678075,4.61296875 22.0746046,3.70784375 C19.7402123,1.44340625 16.5571716,0.04915625 13.0488833,0.04915625 C5.88653415,0.04915625 0.0783680134,5.85975 0.0783680134,13.0247812 C0.0783680134,20.190625 5.88653415,26 13.0488833,26 C15.6179736,26 18.0136797,25.2520937 20.0293212,23.96225 C21.9710613,22.698 22.453857,21.7640312 22.4189366,21.646625 C22.4189366,21.646625 21.0416086,18.5835 21.0168394,18.5343437 L21.0168394,18.5343437 Z" id="Fill-16"></path>
                        <path d="M146.255016,0.30834375 L149.439275,0.30834375 L149.439275,4.6531875 C149.902986,3.65625 150.79427,2.5618125 151.476437,1.9654375 C153.767382,-0.03696875 157.780392,-0.2413125 160.709651,0.845 C162.33467,1.44828125 163.95766,2.7129375 164.984971,4.23109375 C165.7451,5.35478125 166.178357,6.6885 166.435794,8.00759375 C166.744394,9.5883125 166.780938,11.337625 166.780938,14.0355312 L166.780938,25.337 L163.596679,25.337 L163.596679,16.1679375 C163.596679,11.5200312 163.837874,8.16521875 161.834414,5.46121875 C159.596662,2.70846875 155.278301,3.18703125 153.40762,4.44884375 C151.482528,5.80165625 149.439275,7.33525 149.439275,15.897375 L149.439275,25.337 L146.255016,25.337 L146.255016,0.30834375" id="Fill-18"></path>
                    </g>
                    <path d="M69.5335426,13.0247812 C69.5335426,7.674875 73.8705828,3.33571875 79.217474,3.33571875 C81.8957922,3.33571875 84.3199219,4.424875 86.0724419,6.183125 L71.2702265,18.56075 C70.1751046,16.9914062 69.5335426,15.08325 69.5335426,13.0247812 L69.5335426,13.0247812 Z M87.1854301,18.5343437 C87.1854301,18.5343437 83.8070784,22.7130312 79.217474,22.7130312 C77.1015376,22.7130312 75.1447736,22.0337812 73.5510199,20.88125 L90.5329218,6.68078125 C89.830046,5.59040625 89.2363981,4.61296875 88.2431952,3.70784375 C85.9083969,1.44340625 82.7261683,0.04915625 79.217474,0.04915625 C72.0547188,0.04915625 66.2469587,5.85975 66.2469587,13.0247812 C66.2469587,20.190625 72.0547188,26 79.217474,26 C81.7861582,26 84.1818643,25.2520937 86.1975058,23.96225 C88.139652,22.698 88.6224477,21.7640312 88.5879333,21.646625 C88.5879333,21.646625 87.2101992,18.5835 87.1854301,18.5343437 L87.1854301,18.5343437 Z" id="Fill-20" fill="#FFFFFF"></path>
                    <path d="M286.597104,1.25125 L286.709986,1.25125 C286.870377,1.25125 286.969859,1.24475 287.008434,1.2325625 C287.047415,1.220375 287.077869,1.19884375 287.100202,1.16796875 C287.122535,1.13709375 287.133904,1.10175 287.133904,1.06275 C287.133904,1.02415625 287.122941,0.9904375 287.10142,0.96078125 C287.079087,0.931125 287.048227,0.90959375 287.007622,0.897 C286.967423,0.884 286.86794,0.8775 286.709986,0.8775 L286.597104,0.8775 L286.597104,1.25125 L286.597104,1.25125 Z M286.31977,2.0288125 L286.31977,0.66015625 L286.597104,0.66015625 C286.857383,0.66015625 287.003156,0.661375 287.034828,0.6638125 C287.126595,0.67153125 287.198061,0.6898125 287.249223,0.71825 C287.300386,0.74709375 287.342615,0.7905625 287.376723,0.84946875 C287.411238,0.908375 287.428292,0.97378125 287.428292,1.0456875 C287.428292,1.14440625 287.395808,1.22890625 287.331652,1.2991875 C287.267089,1.36946875 287.17654,1.4129375 287.060003,1.42959375 C287.10142,1.4454375 287.133498,1.4625 287.155425,1.4811875 C287.178164,1.49946875 287.209024,1.53440625 287.248411,1.586 C287.258156,1.5998125 287.291859,1.6550625 287.349112,1.7525625 L287.510721,2.0288125 L287.167607,2.0288125 L287.053506,1.80659375 C286.975544,1.6575 286.911794,1.56325 286.861444,1.52465625 C286.811093,1.4860625 286.746937,1.4665625 286.669381,1.4665625 L286.597104,1.4665625 L286.597104,2.0288125 L286.31977,2.0288125 L286.31977,2.0288125 Z M286.903267,0.30184375 C286.726228,0.30184375 286.556093,0.346125 286.393672,0.4346875 C286.230845,0.52325 286.102939,0.6508125 286.009141,0.81696875 C285.915749,0.98271875 285.868647,1.157 285.868647,1.33859375 C285.868647,1.519375 285.914531,1.691625 286.005486,1.85534375 C286.097254,2.01946875 286.224754,2.1474375 286.388799,2.23925 C286.552438,2.33146875 286.723792,2.377375 286.903267,2.377375 C287.08396,2.377375 287.256126,2.33146875 287.418953,2.23925 C287.582186,2.1474375 287.710092,2.01946875 287.80186,1.85534375 C287.894034,1.691625 287.939917,1.519375 287.939917,1.33859375 C287.939917,1.157 287.893221,0.98271875 287.799423,0.81696875 C287.705625,0.6508125 287.577313,0.52325 287.41408,0.4346875 C287.250847,0.346125 287.080712,0.30184375 286.903267,0.30184375 L286.903267,0.30184375 Z M286.901643,0.04915625 C287.122535,0.04915625 287.3349,0.10440625 287.537926,0.21490625 C287.740952,0.32540625 287.900124,0.48384375 288.016661,0.690625 C288.132792,0.897 288.190451,1.113125 288.190451,1.33859375 C288.190451,1.56325 288.133604,1.77734375 288.019504,1.980875 C287.905809,2.18440625 287.747043,2.34325 287.543611,2.45740625 C287.340179,2.57115625 287.126189,2.62803125 286.901643,2.62803125 C286.677502,2.62803125 286.463107,2.57115625 286.259675,2.45740625 C286.056243,2.34325 285.897476,2.18440625 285.783782,1.980875 C285.669681,1.77734375 285.61324,1.56325 285.61324,1.33859375 C285.61324,1.113125 285.670899,0.897 285.78703,0.690625 C285.902755,0.48384375 286.06274,0.32540625 286.265765,0.21490625 C286.468791,0.10440625 286.68075,0.04915625 286.901643,0.04915625 L286.901643,0.04915625 Z" id="Fill-21" fill="#FFFFFF"></path>
                </g>
            </g>
        </g>
    </g>
</svg>